module tm1-simple-goauth

// +heroku goVersion go1.16
go 1.16

require (
	github.com/gin-contrib/cors v1.3.1
	github.com/gin-gonic/gin v1.7.7
	github.com/go-openapi/swag v0.21.1 // indirect
	github.com/go-playground/validator/v10 v10.10.0 // indirect
	github.com/go-redis/redis v6.15.9+incompatible
	github.com/json-iterator/go v1.1.12 // indirect
	github.com/mailru/easyjson v0.7.7 // indirect
	github.com/mattn/go-isatty v0.0.14 // indirect
	github.com/modern-go/concurrent v0.0.0-20180306012644-bacd9c7ef1dd // indirect
	github.com/onsi/ginkgo v1.16.5 // indirect
	github.com/onsi/gomega v1.18.1 // indirect
	github.com/swaggo/files v0.0.0-20210815190702-a29dd2bc99b2
	github.com/swaggo/gin-swagger v1.4.1
	github.com/swaggo/swag v1.8.0
	github.com/ugorji/go v1.2.7 // indirect
	golang.org/x/crypto v0.0.0-20220214200702-86341886e292
	golang.org/x/net v0.0.0-20220225172249-27dd8689420f // indirect
	golang.org/x/sys v0.0.0-20220227234510-4e6760a101f9 // indirect
	golang.org/x/tools v0.1.9 // indirect
	google.golang.org/protobuf v1.27.1 // indirect
)
